%YAML 1.1
%TAG !u! tag:unity3d.com,2011:
--- !u!114 &11400000
MonoBehaviour:
  m_ObjectHideFlags: 0
  m_PrefabParentObject: {fileID: 0}
  m_PrefabInternal: {fileID: 0}
  m_GameObject: {fileID: 0}
  m_Enabled: 1
  m_EditorHideFlags: 0
  m_Script: {fileID: 11500000, guid: 3fa9b9737ebac44d39dbc40cde8987a6, type: 3}
  m_Name: Materials
  m_EditorClassIdentifier: 
  favourites:
  - _GUID: 1176feae214742442837411a2582728b
    isPinned: 0
    shouldDrawExtras: 0
  - _GUID: 7d331cc1bfef4004f8c424b30d2ffe89
    isPinned: 0
    shouldDrawExtras: 0
