%YAML 1.1
%TAG !u! tag:unity3d.com,2011:
--- !u!114 &11400000
MonoBehaviour:
  m_ObjectHideFlags: 0
  m_PrefabParentObject: {fileID: 0}
  m_PrefabInternal: {fileID: 0}
  m_GameObject: {fileID: 0}
  m_Enabled: 1
  m_EditorHideFlags: 0
  m_Script: {fileID: 11500000, guid: 3fa9b9737ebac44d39dbc40cde8987a6, type: 3}
  m_Name: Scripts
  m_EditorClassIdentifier: 
  favourites:
  - _GUID: 5f53903b0a63e6942a5129f97ec93f0d
    isPinned: 0
    shouldDrawExtras: 0
  - _GUID: 535fceb7420067346a3ff36526635211
    isPinned: 0
    shouldDrawExtras: 0
  - _GUID: 4b11c77201785844e80523288ad99940
    isPinned: 0
    shouldDrawExtras: 0
  - _GUID: 8245f5392a6d0a24aa2a712f9897fb8f
    isPinned: 0
    shouldDrawExtras: 0
  - _GUID: 75acf734bdd60d34d901e43f8db330ff
    isPinned: 0
    shouldDrawExtras: 0
  - _GUID: dfd0f0bb3451346188e272ed28fac7d0
    isPinned: 0
    shouldDrawExtras: 0
  - _GUID: 98e4bb37e45bee14b979f31558d89b43
    isPinned: 0
    shouldDrawExtras: 0
  - _GUID: 71f80c38552529746a5c2e6171c00c64
    isPinned: 0
    shouldDrawExtras: 0
  - _GUID: 6ef62f1c039f56a4ba18519e679a2477
    isPinned: 0
    shouldDrawExtras: 0
