%YAML 1.1
%TAG !u! tag:unity3d.com,2011:
--- !u!134 &13400000
PhysicMaterial:
  m_ObjectHideFlags: 0
  m_PrefabParentObject: {fileID: 0}
  m_PrefabInternal: {fileID: 0}
  m_Name: Flipper
  dynamicFriction: 0
  staticFriction: 0.8
  bounciness: 1
  frictionCombine: 3
  bounceCombine: 2
