%YAML 1.1
%TAG !u! tag:unity3d.com,2011:
--- !u!1045 &1
EditorBuildSettings:
  m_ObjectHideFlags: 0
  serializedVersion: 2
  m_Scenes:
  - enabled: 1
    path: Assets/_Game/Scenes/Root/Root.unity
  - enabled: 1
    path: Assets/_Game/Scenes/Menus/MainMenu.unity
  - enabled: 1
    path: Assets/_Game/Scenes/Table.unity
  - enabled: 1
    path: Assets/_Game/Scenes/Tables/0/Table_0.unity
  - enabled: 1
    path: Assets/_Game/Scenes/Tables/0/Table_0_0.unity
  - enabled: 1
    path: Assets/_Game/Scenes/Tables/0/Table_0_1.unity
