%YAML 1.1
%TAG !u! tag:unity3d.com,2011:
--- !u!114 &11400000
MonoBehaviour:
  m_ObjectHideFlags: 0
  m_PrefabParentObject: {fileID: 0}
  m_PrefabInternal: {fileID: 0}
  m_GameObject: {fileID: 0}
  m_Enabled: 1
  m_EditorHideFlags: 0
  m_Script: {fileID: 11500000, guid: 007ac69c61fd00046800ab506e0d497d, type: 3}
  m_Name: Dash
  m_EditorClassIdentifier: 
  displayName: Dash
  description: Dash forth in the current movement direction or where curently aimed
  useSoundName: 
  readySoundName: 
  icon: {fileID: 21300000, guid: e25d82a7363ebb7439d0734944cf5379, type: 3}
  staminaCost: 0
  cooldown: 0
  requiresAim: 0
